test.vcd
$date
	Sat Dec 29 14:48:36 2018
$end
$version
	Icarus Verilog
$end
$timescale
	1ps
$end
$scope module Pipelined_CPU_sim $end
$var wire 32 ! WB_Alu [31:0] $end
$var wire 32 " PC [31:0] $end
$var wire 32 # MEM_Alu [31:0] $end
$var wire 32 $ Inst [31:0] $end
$var wire 32 % EXE_Alu [31:0] $end
$var reg 1 & Clk $end
$var reg 1 ' Clrn $end
$scope module Top_control_sim $end
$var wire 1 & Clk $end
$var wire 1 ' Clrn $end
$var wire 1 ( wpcir $end
$var wire 5 ) WB_write_reg [4:0] $end
$var wire 1 * WB_Wreg $end
$var wire 1 + WB_Reg2reg $end
$var wire 32 , WB_Date_out [31:0] $end
$var wire 32 - WB_Date_in [31:0] $end
$var wire 32 . WB_Alu [31:0] $end
$var wire 2 / Pcsrc [1:0] $end
$var wire 32 0 PC_plus4 [31:0] $end
$var wire 32 1 PC [31:0] $end
$var wire 32 2 Next_PC [31:0] $end
$var wire 5 3 MEM_write_reg [4:0] $end
$var wire 1 4 MEM_Wreg $end
$var wire 1 5 MEM_Wmem $end
$var wire 1 6 MEM_Reg2reg $end
$var wire 32 7 MEM_Qb [31:0] $end
$var wire 32 8 MEM_Date_out [31:0] $end
$var wire 32 9 MEM_Alu [31:0] $end
$var wire 32 : J_jump_PC [31:0] $end
$var wire 32 ; Inst [31:0] $end
$var wire 32 < I_jump_PC [31:0] $end
$var wire 32 = IF_Inst [31:0] $end
$var wire 5 > ID_write_reg [4:0] $end
$var wire 1 ? ID_Wreg $end
$var wire 1 @ ID_Wmem $end
$var wire 1 A ID_Reg2reg $end
$var wire 32 B ID_Qb [31:0] $end
$var wire 32 C ID_Qa [31:0] $end
$var wire 32 D ID_PC_plus4 [31:0] $end
$var wire 32 E ID_Ext_imm [31:0] $end
$var wire 1 F ID_Aluqb $end
$var wire 2 G ID_Aluc [1:0] $end
$var wire 5 H EXE_write_reg [4:0] $end
$var wire 1 I EXE_Wreg $end
$var wire 1 J EXE_Wmem $end
$var wire 1 K EXE_Reg2reg $end
$var wire 32 L EXE_Qb [31:0] $end
$var wire 32 M EXE_Qa [31:0] $end
$var wire 32 N EXE_PC_plus4 [31:0] $end
$var wire 32 O EXE_Ext_imm [31:0] $end
$var wire 1 P EXE_Aluqb $end
$var wire 2 Q EXE_Aluc [1:0] $end
$var wire 32 R EXE_Alu [31:0] $end
$var wire 1 S Condep $end
$scope module Date_in_select $end
$var wire 32 T y [31:0] $end
$var wire 1 + s $end
$var wire 32 U a1 [31:0] $end
$var wire 32 V a0 [31:0] $end
$upscope $end
$scope module EXEcontrol $end
$var wire 32 W Alu_a [31:0] $end
$var wire 32 X EXE_Alu [31:0] $end
$var wire 1 Y Z $end
$var wire 5 Z EXE_write_reg [4:0] $end
$var wire 32 [ EXE_Qb [31:0] $end
$var wire 32 \ EXE_Qa [31:0] $end
$var wire 32 ] EXE_PC_plus4 [31:0] $end
$var wire 32 ^ EXE_Ext_imm [31:0] $end
$var wire 1 P EXE_Aluqb $end
$var wire 2 _ EXE_Aluc [1:0] $end
$var wire 32 ` EXE_Alu_out [31:0] $end
$var wire 32 a Alu_b [31:0] $end
$scope module inAlu_b $end
$var wire 32 b y [31:0] $end
$var wire 1 P s $end
$var wire 32 c a1 [31:0] $end
$var wire 32 d a0 [31:0] $end
$upscope $end
$scope module run $end
$var wire 32 e X [31:0] $end
$var wire 32 f Y [31:0] $end
$var wire 32 g d_and [31:0] $end
$var wire 32 h d_or [31:0] $end
$var wire 32 i d_as [31:0] $end
$var wire 32 j d_and_or [31:0] $end
$var wire 1 Y Z $end
$var wire 32 k R [31:0] $end
$var wire 2 l Aluc [1:0] $end
$scope module addsub0 $end
$var wire 1 m Sub $end
$var wire 32 n X [31:0] $end
$var wire 32 o Y [31:0] $end
$var wire 32 p S [31:0] $end
$scope module as32 $end
$var wire 1 m Sub $end
$var wire 32 q X [31:0] $end
$var wire 32 r Y [31:0] $end
$var wire 32 s S [31:0] $end
$upscope $end
$upscope $end
$scope module select1 $end
$var wire 32 t a0 [31:0] $end
$var wire 32 u a1 [31:0] $end
$var wire 1 v s $end
$var wire 32 w y [31:0] $end
$upscope $end
$scope module select2 $end
$var wire 32 x a0 [31:0] $end
$var wire 32 y a1 [31:0] $end
$var wire 1 z s $end
$var wire 32 { y [31:0] $end
$upscope $end
$upscope $end
$upscope $end
$scope module IDcontrol $end
$var wire 1 & Clk $end
$var wire 1 ' Clrn $end
$var wire 32 | EXE_Alu [31:0] $end
$var wire 32 } WB_Date_in [31:0] $end
$var wire 5 ~ rt [4:0] $end
$var wire 5 !" rs [4:0] $end
$var wire 1 "" regrt $end
$var wire 5 #" rd [4:0] $end
$var wire 1 $" Z $end
$var wire 5 %" WB_write_reg [4:0] $end
$var wire 1 * WB_Wreg $end
$var wire 1 ( Stall $end
$var wire 1 &" Se $end
$var wire 32 '" Qb [31:0] $end
$var wire 32 (" Qa [31:0] $end
$var wire 2 )" Pcsrc [1:0] $end
$var wire 6 *" Op [5:0] $end
$var wire 5 +" MEM_write_reg [4:0] $end
$var wire 1 4 MEM_Wreg $end
$var wire 1 6 MEM_Reg2reg $end
$var wire 32 ," MEM_Date_out [31:0] $end
$var wire 32 -" MEM_Alu [31:0] $end
$var wire 32 ." L_imm [31:0] $end
$var wire 32 /" J_jump_PC [31:0] $end
$var wire 32 0" Inst [31:0] $end
$var wire 32 1" I_jump_PC [31:0] $end
$var wire 5 2" ID_write_reg [4:0] $end
$var wire 1 ? ID_Wreg $end
$var wire 1 @ ID_Wmem $end
$var wire 1 A ID_Reg2reg $end
$var wire 32 3" ID_Qb [31:0] $end
$var wire 32 4" ID_Qa [31:0] $end
$var wire 32 5" ID_PC_plus4 [31:0] $end
$var wire 32 6" ID_Ext_imm [31:0] $end
$var wire 1 F ID_Aluqb $end
$var wire 2 7" ID_Aluc [1:0] $end
$var wire 2 8" Fwdb [1:0] $end
$var wire 2 9" Fwda [1:0] $end
$var wire 6 :" Func [5:0] $end
$var wire 5 ;" EXE_write_reg [4:0] $end
$var wire 1 I EXE_Wreg $end
$var wire 1 K EXE_Reg2reg $end
$var wire 1 S Condep $end
$scope module Alu_a $end
$var wire 32 <" A1 [31:0] $end
$var wire 32 =" Y [31:0] $end
$var wire 2 >" S [1:0] $end
$var wire 32 ?" A3 [31:0] $end
$var wire 32 @" A2 [31:0] $end
$var wire 32 A" A0 [31:0] $end
$scope function select $end
$var reg 32 B" A0 [31:0] $end
$var reg 32 C" A1 [31:0] $end
$var reg 32 D" A2 [31:0] $end
$var reg 32 E" A3 [31:0] $end
$var reg 2 F" S [1:0] $end
$var reg 32 G" select [31:0] $end
$upscope $end
$upscope $end
$scope module Alu_b $end
$var wire 32 H" A1 [31:0] $end
$var wire 32 I" Y [31:0] $end
$var wire 2 J" S [1:0] $end
$var wire 32 K" A3 [31:0] $end
$var wire 32 L" A2 [31:0] $end
$var wire 32 M" A0 [31:0] $end
$scope function select $end
$var reg 32 N" A0 [31:0] $end
$var reg 32 O" A1 [31:0] $end
$var reg 32 P" A2 [31:0] $end
$var reg 32 Q" A3 [31:0] $end
$var reg 2 R" S [1:0] $end
$var reg 32 S" select [31:0] $end
$upscope $end
$upscope $end
$scope module Ext_imm $end
$var wire 16 T" immediate [15:0] $end
$var wire 32 U" out [31:0] $end
$var wire 1 &" Se $end
$upscope $end
$scope module Regfiee $end
$var wire 1 V" Clk $end
$var wire 1 ' Clrn $end
$var wire 32 W" D [31:0] $end
$var wire 5 X" Ra [4:0] $end
$var wire 5 Y" Rb [4:0] $end
$var wire 5 Z" Wn [4:0] $end
$var wire 1 * We $end
$var wire 32 [" Qb [31:0] $end
$var wire 32 \" Qa [31:0] $end
$var integer 32 ]" i [31:0] $end
$upscope $end
$scope module addr $end
$var wire 1 ^" Sub $end
$var wire 32 _" Y [31:0] $end
$var wire 32 `" X [31:0] $end
$var wire 32 a" S [31:0] $end
$upscope $end
$scope module chose_writeaddr $end
$var wire 5 b" A0 [4:0] $end
$var wire 5 c" A1 [4:0] $end
$var wire 5 d" Y [4:0] $end
$var wire 1 "" S $end
$upscope $end
$scope module controlUnit $end
$var wire 1 S Condep $end
$var wire 6 e" Func [5:0] $end
$var wire 1 F ID_Aluqb $end
$var wire 1 A ID_Reg2reg $end
$var wire 1 @ ID_Wmem $end
$var wire 1 ? ID_Wreg $end
$var wire 1 f" I_J $end
$var wire 1 g" I_add $end
$var wire 1 h" I_addi $end
$var wire 1 i" I_and $end
$var wire 1 j" I_andi $end
$var wire 1 k" I_beq $end
$var wire 1 l" I_bne $end
$var wire 1 m" I_lw $end
$var wire 1 n" I_or $end
$var wire 1 o" I_ori $end
$var wire 1 p" I_rs $end
$var wire 1 q" I_rt $end
$var wire 1 r" I_sub $end
$var wire 1 s" I_sw $end
$var wire 6 t" Op [5:0] $end
$var wire 1 &" Se $end
$var wire 1 ( Stall $end
$var wire 1 $" Z $end
$var wire 1 "" regrt $end
$var wire 5 u" rs [4:0] $end
$var wire 5 v" rt [4:0] $end
$var wire 1 w" R_type $end
$var wire 2 x" Pcsrc [1:0] $end
$var wire 5 y" MEM_write_reg [4:0] $end
$var wire 1 4 MEM_Wreg $end
$var wire 1 6 MEM_Reg2reg $end
$var wire 2 z" ID_Aluc [1:0] $end
$var wire 5 {" EXE_write_reg [4:0] $end
$var wire 1 I EXE_Wreg $end
$var wire 1 K EXE_Reg2reg $end
$var reg 2 |" Fwda [1:0] $end
$var reg 2 }" Fwdb [1:0] $end
$upscope $end
$upscope $end
$scope module IFcontrol $end
$var wire 32 ~" ID_Qa [31:0] $end
$var wire 32 !# I_jump_PC [31:0] $end
$var wire 32 "# J_jump_PC [31:0] $end
$var wire 2 ## Pcsrc [1:0] $end
$var wire 32 $# PC_plus4 [31:0] $end
$var wire 32 %# PC [31:0] $end
$var wire 32 &# Next_PC [31:0] $end
$var wire 32 '# IF_Inst [31:0] $end
$scope module Instmem $end
$var wire 32 (# Inst [31:0] $end
$var wire 32 )# Addr [31:0] $end
$upscope $end
$scope module after_PC $end
$var wire 32 *# A1 [31:0] $end
$var wire 32 +# A2 [31:0] $end
$var wire 32 ,# A3 [31:0] $end
$var wire 2 -# S [1:0] $end
$var wire 32 .# Y [31:0] $end
$var wire 32 /# A0 [31:0] $end
$scope function select $end
$var reg 32 0# A0 [31:0] $end
$var reg 32 1# A1 [31:0] $end
$var reg 32 2# A2 [31:0] $end
$var reg 32 3# A3 [31:0] $end
$var reg 2 4# S [1:0] $end
$var reg 32 5# select [31:0] $end
$upscope $end
$upscope $end
$scope module pc_add4 $end
$var wire 1 6# Sub $end
$var wire 32 7# Y [31:0] $end
$var wire 32 8# X [31:0] $end
$var wire 32 9# S [31:0] $end
$upscope $end
$upscope $end
$scope module MEMcontrol $end
$var wire 1 & Clk $end
$var wire 32 :# Date_out [31:0] $end
$var wire 1 ;# write_in $end
$var wire 1 5 We $end
$var wire 32 <# Date_in [31:0] $end
$var wire 32 =# Addr [31:0] $end
$var integer 32 ># i [31:0] $end
$upscope $end
$scope module PCcontrol $end
$var wire 1 & Clk $end
$var wire 1 ' Clrn $end
$var wire 32 ?# Next_PC [31:0] $end
$var wire 1 ( Stall $end
$var wire 32 @# PC [31:0] $end
$scope module PCreg $end
$var wire 1 & Clk $end
$var wire 1 ' Clrn $end
$var wire 32 A# D [31:0] $end
$var wire 1 ( e $end
$var reg 32 B# q [31:0] $end
$upscope $end
$upscope $end
$scope module Reg_EXE_MEM $end
$var wire 1 & Clk $end
$var wire 1 ' Clrn $end
$var wire 32 C# EXE_Alu [31:0] $end
$var wire 5 D# EXE_write_reg [4:0] $end
$var wire 1 I EXE_Wreg $end
$var wire 1 J EXE_Wmem $end
$var wire 1 K EXE_Reg2reg $end
$var wire 32 E# EXE_Qb [31:0] $end
$var reg 32 F# MEM_Alu [31:0] $end
$var reg 32 G# MEM_Qb [31:0] $end
$var reg 1 6 MEM_Reg2reg $end
$var reg 1 5 MEM_Wmem $end
$var reg 1 4 MEM_Wreg $end
$var reg 5 H# MEM_write_reg [4:0] $end
$upscope $end
$scope module Reg_ID_EXE $end
$var wire 1 & Clk $end
$var wire 1 ' Clrn $end
$var wire 2 I# ID_Aluc [1:0] $end
$var wire 1 F ID_Aluqb $end
$var wire 32 J# ID_Ext_imm [31:0] $end
$var wire 32 K# ID_Qa [31:0] $end
$var wire 32 L# ID_Qb [31:0] $end
$var wire 1 A ID_Reg2reg $end
$var wire 1 @ ID_Wmem $end
$var wire 1 ? ID_Wreg $end
$var wire 5 M# ID_write_reg [4:0] $end
$var wire 32 N# ID_PC_plus4 [31:0] $end
$var reg 2 O# EXE_Aluc [1:0] $end
$var reg 1 P EXE_Aluqb $end
$var reg 32 P# EXE_Ext_imm [31:0] $end
$var reg 32 Q# EXE_PC_plus4 [31:0] $end
$var reg 32 R# EXE_Qa [31:0] $end
$var reg 32 S# EXE_Qb [31:0] $end
$var reg 1 K EXE_Reg2reg $end
$var reg 1 J EXE_Wmem $end
$var reg 1 I EXE_Wreg $end
$var reg 5 T# EXE_write_reg [4:0] $end
$upscope $end
$scope module Reg_IF_ID $end
$var wire 1 & Clk $end
$var wire 1 ' Clrn $end
$var wire 1 S Condep $end
$var wire 32 U# IF_Inst [31:0] $end
$var wire 32 V# PC_plus4 [31:0] $end
$var wire 1 ( wpcir $end
$var wire 32 W# Inst [31:0] $end
$var wire 32 X# ID_PC_plus4 [31:0] $end
$scope module Instmem $end
$var wire 1 & Clk $end
$var wire 1 ' Clrn $end
$var wire 1 S Condep $end
$var wire 32 Y# D [31:0] $end
$var wire 1 ( e $end
$var reg 32 Z# q [31:0] $end
$upscope $end
$scope module PCadd4 $end
$var wire 1 & Clk $end
$var wire 1 ' Clrn $end
$var wire 1 S Condep $end
$var wire 32 [# D [31:0] $end
$var wire 1 ( e $end
$var reg 32 \# q [31:0] $end
$upscope $end
$upscope $end
$scope module Reg_MEM_WB $end
$var wire 1 & Clk $end
$var wire 1 ' Clrn $end
$var wire 32 ]# MEM_Alu [31:0] $end
$var wire 32 ^# MEM_Date_out [31:0] $end
$var wire 1 6 MEM_Reg2reg $end
$var wire 1 4 MEM_Wreg $end
$var wire 5 _# MEM_write_reg [4:0] $end
$var reg 32 `# WB_Alu [31:0] $end
$var reg 32 a# WB_Date_out [31:0] $end
$var reg 1 + WB_Reg2reg $end
$var reg 1 * WB_Wreg $end
$var reg 5 b# WB_write_reg [4:0] $end
$upscope $end
$upscope $end
$upscope $end
$enddefinitions $end
#0
$dumpvars
b0 b#
b0 a#
b0 `#
b0 _#
b0 ^#
b0 ]#
b0 \#
b100 [#
b0 Z#
b0 Y#
b0 X#
b0 W#
b100 V#
b0 U#
b0 T#
b0 S#
b0 R#
b0 Q#
b0 P#
b0 O#
b0 N#
b0 M#
b0 L#
b0 K#
b0 J#
b0 I#
b0 H#
b0 G#
b0 F#
b0 E#
b0 D#
b0 C#
b0 B#
b100 A#
b0 @#
b100 ?#
b100000 >#
b0 =#
b0 <#
0;#
b0 :#
b100 9#
b0 8#
b100 7#
06#
b100 5#
b0 4#
b0 3#
b0 2#
b0 1#
b100 0#
b100 /#
b100 .#
b0 -#
b0 ,#
b0 +#
b0 *#
b0 )#
b0 (#
b0 '#
b100 &#
b0 %#
b100 $#
b0 ##
b0 "#
b0 !#
b0 ~"
b0 }"
b0 |"
b0 {"
b0 z"
b0 y"
b0 x"
1w"
b0 v"
b0 u"
b0 t"
0s"
0r"
0q"
0p"
0o"
0n"
0m"
0l"
0k"
0j"
0i"
0h"
0g"
0f"
b0 e"
b0 d"
b0 c"
b0 b"
b0 a"
b0 `"
b0 _"
0^"
b100000 ]"
b0 \"
b0 ["
b0 Z"
b0 Y"
b0 X"
b0 W"
1V"
b0 U"
b0 T"
b0 S"
b0 R"
b0 Q"
b0 P"
b0 O"
b0 N"
b0 M"
b0 L"
b0 K"
b0 J"
b0 I"
b0 H"
b0 G"
b0 F"
b0 E"
b0 D"
b0 C"
b0 B"
b0 A"
b0 @"
b0 ?"
b0 >"
b0 ="
b0 <"
b0 ;"
b0 :"
b0 9"
b0 8"
b0 7"
b0 6"
b0 5"
b0 4"
b0 3"
b0 2"
b0 1"
b0 0"
b0 /"
b0 ."
b0 -"
b0 ,"
b0 +"
b0 *"
b0 )"
b0 ("
b0 '"
0&"
b0 %"
1$"
b0 #"
0""
b0 !"
b0 ~
b0 }
b0 |
b0 {
0z
b0 y
b0 x
b0 w
0v
b0 u
b0 t
b0 s
b0 r
b0 q
b0 p
b0 o
b0 n
0m
b0 l
b0 k
b0 j
b0 i
b0 h
b0 g
b0 f
b0 e
b0 d
b0 c
b0 b
b0 a
b0 `
b0 _
b0 ^
b0 ]
b0 \
b0 [
b0 Z
1Y
b0 X
b0 W
b0 V
b0 U
b0 T
0S
b0 R
b0 Q
0P
b0 O
b0 N
b0 M
b0 L
0K
0J
0I
b0 H
b0 G
0F
b0 E
b0 D
b0 C
b0 B
0A
0@
0?
b0 >
b0 =
b0 <
b0 ;
b0 :
b0 9
b0 8
b0 7
06
05
04
b0 3
b100 2
b0 1
b100 0
b0 /
b0 .
b0 -
b0 ,
0+
0*
b0 )
1(
0'
0&
b0 %
b0 $
b0 #
b0 "
b0 !
$end
#20000
b1000 2
b1000 &#
b1000 .#
b1000 ?#
b1000 A#
b1000 5#
b100 1#
b1000 0#
b100000001000010000000000001010 =
b100000001000010000000000001010 '#
b100000001000010000000000001010 (#
b100000001000010000000000001010 U#
b100000001000010000000000001010 Y#
b100 <
b100 1"
b100 a"
b100 !#
b100 *#
b100 D
b100 5"
b100 `"
b100 N#
b100 X#
b100 \#
b1000 0
b1000 $#
b1000 /#
b1000 9#
b1000 V#
b1000 [#
b100 "
b100 1
b100 %#
b100 )#
b100 8#
b100 @#
b100 B#
0V"
1&
1'
#40000
1V"
0&
#60000
b1 >
b1 2"
b1 d"
b1 M#
1""
1p"
1?
1F
1&"
1h"
b101000 ."
b101000 _"
b100000010000100000000000000110 =
b100000010000100000000000000110 '#
b100000010000100000000000000110 (#
b100000010000100000000000000110 U#
b100000010000100000000000000110 Y#
b1100 2
b1100 &#
b1100 .#
b1100 ?#
b1100 A#
b1100 5#
b100001000000000000101000 3#
b110000 1#
b1100 0#
b1010 E
b1010 6"
b1010 U"
b1010 J#
b1010 T"
b100001000000000000101000 :
b100001000000000000101000 /"
b100001000000000000101000 "#
b100001000000000000101000 ,#
b1 ~
b1 Y"
b1 c"
b1 v"
b1 !"
b1 X"
b1 u"
0w"
b1000 *"
b1000 t"
b1010 :"
b1010 e"
b1100 0
b1100 $#
b1100 /#
b1100 9#
b1100 V#
b1100 [#
b1000 "
b1000 1
b1000 %#
b1000 )#
b1000 8#
b1000 @#
b1000 B#
b110000 <
b110000 1"
b110000 a"
b110000 !#
b110000 *#
b1000 D
b1000 5"
b1000 `"
b1000 N#
b1000 X#
b1000 \#
b100000001000010000000000001010 $
b100000001000010000000000001010 ;
b100000001000010000000000001010 0"
b100000001000010000000000001010 W#
b100000001000010000000000001010 Z#
b100 N
b100 ]
b100 Q#
0V"
1&
#80000
1V"
0&
#100000
b1010 C"
b1010 O"
0Y
b1010 %
b1010 R
b1010 X
b1010 |
b1010 <"
b1010 H"
b1010 C#
b1010 `
b1010 k
b1010 {
b1010 h
b1010 u
b1010 i
b1010 p
b1010 s
b1010 x
b1010 r
b11000 ."
b11000 _"
b1000010000000000000011000 3#
b10 >
b10 2"
b10 d"
b10 M#
b1010 a
b1010 b
b1010 f
b1010 o
b110 E
b110 6"
b110 U"
b110 J#
b110 T"
b1000010000000000000011000 :
b1000010000000000000011000 /"
b1000010000000000000011000 "#
b1000010000000000000011000 ,#
b10 ~
b10 Y"
b10 c"
b10 v"
b10 !"
b10 X"
b10 u"
b110 :"
b110 e"
b10000 2
b10000 &#
b10000 .#
b10000 ?#
b10000 A#
b10000 5#
b100100 1#
b10000 0#
b10000110101000000100000 =
b10000110101000000100000 '#
b10000110101000000100000 (#
b10000110101000000100000 U#
b10000110101000000100000 Y#
b1000 N
b1000 ]
b1000 Q#
b1 H
b1 Z
b1 ;"
b1 {"
b1 D#
b1 T#
b1010 O
b1010 ^
b1010 c
b1010 P#
1P
1I
b100000010000100000000000000110 $
b100000010000100000000000000110 ;
b100000010000100000000000000110 0"
b100000010000100000000000000110 W#
b100000010000100000000000000110 Z#
b100100 <
b100100 1"
b100100 a"
b100100 !#
b100100 *#
b1100 D
b1100 5"
b1100 `"
b1100 N#
b1100 X#
b1100 \#
b10000 0
b10000 $#
b10000 /#
b10000 9#
b10000 V#
b10000 [#
b1100 "
b1100 1
b1100 %#
b1100 )#
b1100 8#
b1100 @#
b1100 B#
0V"
1&
#120000
1V"
0&
#140000
1q"
0""
1p"
1?
0F
0&"
1g"
0h"
b110 O"
b110 C"
b110 %
b110 R
b110 X
b110 |
b110 <"
b110 H"
b110 C#
b110 `
b110 k
b110 {
b10100000010000000 ."
b10100000010000000 _"
b1010 >
b1010 2"
b1010 d"
b1010 M#
b110 h
b110 u
b110 i
b110 p
b110 s
b110 x
b110 r
b1000100010000000100010 =
b1000100010000000100010 '#
b1000100010000000100010 (#
b1000100010000000100010 U#
b1000100010000000100010 Y#
b10100 2
b10100 &#
b10100 .#
b10100 ?#
b10100 A#
b10100 5#
b1000011010100000010000000 3#
b110 2#
b10100000010010000 1#
b10100 0#
b101000000100000 E
b101000000100000 6"
b101000000100000 U"
b101000000100000 J#
b101000000100000 T"
b1000011010100000010000000 :
b1000011010100000010000000 /"
b1000011010100000010000000 "#
b1000011010100000010000000 ,#
b1010 #"
b1010 b"
b11 ~
b11 Y"
b11 c"
b11 v"
1w"
b0 *"
b0 t"
b100000 :"
b100000 e"
b110 a
b110 b
b110 f
b110 o
b0 B
b0 3"
b0 I"
b0 L#
b0 S"
b0 R"
b1010 P"
0$"
b110 C
b110 4"
b110 ="
b110 ~"
b110 +#
b110 K#
b110 G"
b1 F"
b1010 D"
b0 8"
b0 J"
b0 }"
b1 9"
b1 >"
b1 |"
b10100 0
b10100 $#
b10100 /#
b10100 9#
b10100 V#
b10100 [#
b10000 "
b10000 1
b10000 %#
b10000 )#
b10000 8#
b10000 @#
b10000 B#
b10100000010010000 <
b10100000010010000 1"
b10100000010010000 a"
b10100000010010000 !#
b10100000010010000 *#
b10000 D
b10000 5"
b10000 `"
b10000 N#
b10000 X#
b10000 \#
b10000110101000000100000 $
b10000110101000000100000 ;
b10000110101000000100000 0"
b10000110101000000100000 W#
b10000110101000000100000 Z#
b1100 N
b1100 ]
b1100 Q#
b10 H
b10 Z
b10 ;"
b10 {"
b10 D#
b10 T#
b110 O
b110 ^
b110 c
b110 P#
b1 3
b1 +"
b1 y"
b1 H#
b1 _#
b1010 #
b1010 9
b1010 -"
b1010 @"
b1010 L"
b1010 =#
b1010 F#
b1010 ]#
14
0V"
1&
#160000
1V"
0&
#180000
b1 G
b1 7"
b1 z"
b1 I#
0g"
1r"
b0 r
b1000000010001000 ."
b1000000010001000 _"
b100010001000000010001000 3#
b0 2#
b100 >
b100 2"
b100 d"
b100 M#
b1010 -
b1010 T
b1010 }
b1010 W"
b110 B
b110 3"
b110 I"
b110 L#
b110 S"
b10 R"
b110 P"
b110 O"
0$"
b0 C
b0 4"
b0 ="
b0 ~"
b0 +#
b0 K#
b0 G"
b0 F"
b110 D"
b110 C"
b10 8"
b10 J"
b10 }"
b0 9"
b0 >"
b0 |"
b110 %
b110 R
b110 X
b110 |
b110 <"
b110 H"
b110 C#
b110 `
b110 k
b110 {
b0 a
b0 b
b0 f
b0 o
b10000000100010 E
b10000000100010 6"
b10000000100010 U"
b10000000100010 J#
b10000000100010 T"
b100010001000000010001000 :
b100010001000000010001000 /"
b100010001000000010001000 "#
b100010001000000010001000 ,#
b100 #"
b100 b"
b10 ~
b10 Y"
b10 c"
b10 v"
b1 !"
b1 X"
b1 u"
b100010 :"
b100010 e"
b11000 2
b11000 &#
b11000 .#
b11000 ?#
b11000 A#
b11000 5#
b1000000010011100 1#
b11000 0#
b1000100100100000100100 =
b1000100100100000100100 '#
b1000100100100000100100 (#
b1000100100100000100100 U#
b1000100100100000100100 Y#
b1 )
b1 %"
b1 Z"
b1 b#
b1010 !
b1010 .
b1010 V
b1010 `#
1*
b10 3
b10 +"
b10 y"
b10 H#
b10 _#
b110 #
b110 9
b110 -"
b110 @"
b110 L"
b110 =#
b110 F#
b110 ]#
b10000 N
b10000 ]
b10000 Q#
b1010 H
b1010 Z
b1010 ;"
b1010 {"
b1010 D#
b1010 T#
b101000000100000 O
b101000000100000 ^
b101000000100000 c
b101000000100000 P#
b110 i
b110 p
b110 s
b110 x
b110 W
b110 e
b110 n
b110 q
b110 M
b110 \
b110 R#
0P
b1000100010000000100010 $
b1000100010000000100010 ;
b1000100010000000100010 0"
b1000100010000000100010 W#
b1000100010000000100010 Z#
b1000000010011100 <
b1000000010011100 1"
b1000000010011100 a"
b1000000010011100 !#
b1000000010011100 *#
b10100 D
b10100 5"
b10100 `"
b10100 N#
b10100 X#
b10100 \#
b11000 0
b11000 $#
b11000 /#
b11000 9#
b11000 V#
b11000 [#
b10100 "
b10100 1
b10100 %#
b10100 )#
b10100 8#
b10100 @#
b10100 B#
0V"
1&
#200000
b1010 2#
b1010 C
b1010 4"
b1010 ="
b1010 ~"
b1010 +#
b1010 K#
b1010 G"
b1010 B"
b1010 ("
b1010 A"
b1010 \"
1V"
0&
#220000
b10 G
b10 7"
b10 z"
b10 I#
0g"
1i"
0r"
b10010000010010000 ."
b10010000010010000 _"
b1001 >
b1001 2"
b1001 d"
b1001 M#
b10 g
b10 t
b100 C"
b1110 j
b1110 w
b1110 y
b11111111111111111111111111111001 r
b0 B
b0 3"
b0 I"
b0 L#
b0 S"
b0 R"
b100 O"
b1001110010100000100101 =
b1001110010100000100101 '#
b1001110010100000100101 (#
b1001110010100000100101 U#
b1001110010100000100101 Y#
b11100 2
b11100 &#
b11100 .#
b11100 ?#
b11100 A#
b11100 5#
b100010010010000010010000 3#
b10010000010101000 1#
b11100 0#
b100100000100100 E
b100100000100100 6"
b100100000100100 U"
b100100000100100 J#
b100100000100100 T"
b100010010010000010010000 :
b100010010010000010010000 /"
b100010010010000010010000 "#
b100010010010000010010000 ,#
b1001 #"
b1001 b"
b100100 :"
b100100 e"
b110 a
b110 b
b110 f
b110 o
b1110 h
b1110 u
b100 %
b100 R
b100 X
b100 |
b100 <"
b100 H"
b100 C#
b100 `
b100 k
b100 {
1v
1m
b0 8"
b0 J"
b0 }"
b110 -
b110 T
b110 }
b110 W"
b11100 0
b11100 $#
b11100 /#
b11100 9#
b11100 V#
b11100 [#
b11000 "
b11000 1
b11000 %#
b11000 )#
b11000 8#
b11000 @#
b11000 B#
b10010000010101000 <
b10010000010101000 1"
b10010000010101000 a"
b10010000010101000 !#
b10010000010101000 *#
b11000 D
b11000 5"
b11000 `"
b11000 N#
b11000 X#
b11000 \#
b1000100100100000100100 $
b1000100100100000100100 ;
b1000100100100000100100 0"
b1000100100100000100100 W#
b1000100100100000100100 Z#
b10100 N
b10100 ]
b10100 Q#
b100 H
b100 Z
b100 ;"
b100 {"
b100 D#
b100 T#
b10000000100010 O
b10000000100010 ^
b10000000100010 c
b10000000100010 P#
b110 L
b110 [
b110 d
b110 E#
b110 S#
b100 i
b100 p
b100 s
b100 x
b1010 W
b1010 e
b1010 n
b1010 q
b1010 M
b1010 \
b1010 R#
b1 Q
b1 _
b1 l
b1 O#
b1010 3
b1010 +"
b1010 y"
b1010 H#
b1010 _#
b10 )
b10 %"
b10 Z"
b10 b#
b110 !
b110 .
b110 V
b110 `#
0V"
1&
#240000
b110 B
b110 3"
b110 I"
b110 L#
b110 S"
b110 N"
b110 '"
b110 M"
b110 ["
1V"
0&
